Tools for contextualizing tests • covtracer
…
Filter For Only Directly Tested Behaviors

Some tests evaluate a broad set of functionality by calling functions that themselves call out to internal package functions. This is often perfectly fine, since the mechanisms of calling those internal functions are limited by the surfaced user-facing functions. Nevertheless, whether a function is called directly is a good indication of the “unit”-ness of a unit test. You may consider only the coverage of directly tested functions.

ttdf %>%
  filter(!doctype %in% c("data", "class")) %>%  # ignore objects without testable code
  select(direct, alias) %>%
  group_by(alias) %>%
  summarize(any_direct_tests = any(direct, na.rm = TRUE)) %>%
  arrange(alias)
#> # A tibble: 10 × 2
#>   alias                   any_direct_tests
#>   <chr>                   <lgl>           
#> 1 Accumulator             TRUE            
#> 2 hypotenuse              TRUE            
#> 3 names,S4Example-method  TRUE            
#> 4 names,S4Example2-method FALSE           
#> 5 Person                  TRUE            
#> # … with 5 more rows
…
