…
``` r
ttdf %>%
  filter(!doctype %in% c("data", "class")) %>% # ignore objects without testable code
  select(direct, alias) %>%
  group_by(alias) %>%
  summarize(any_direct_tests = any(direct, na.rm = TRUE)) %>%
  arrange(alias)
#> # A tibble: 21 × 2
#>   alias              any_direct_tests
#>   <chr>              <lgl>           
#> 1 Accumulator        TRUE            
#> 2 Person             TRUE            
#> 3 Rando              TRUE            
#> 4 adder              TRUE            
#> 5 complex_call_stack TRUE            
#> # ℹ 16 more rows
```
…
