…
``` r
ttdf %>%
  filter(!doctype %in% c("data", "class")) %>%  # ignore objects without testable code
  select(direct, alias) %>%
  group_by(alias) %>%
  summarize(any_direct_tests = any(direct, na.rm = TRUE)) %>%
  arrange(alias)
#> # A tibble: 10 × 2
#>   alias                   any_direct_tests
#>   <chr>                   <lgl>           
#> 1 Accumulator             TRUE            
#> 2 hypotenuse              TRUE            
#> 3 names,S4Example-method  TRUE            
#> 4 names,S4Example2-method FALSE           
#> 5 Person                  TRUE            
#> # … with 5 more rows
```
